animation{
  name = "normal",
  src_image = "entities/handle_pack.png",
  directions = {
    { x = 0, y = 32, frame_width = 16, frame_height = 4, origin_x = 8, origin_y = 13 },
    { x = 0, y = 32, frame_width = 16, frame_height = 4, origin_x = 8, origin_y = 13 },
    { x = 0, y = 32, frame_width = 16, frame_height = 4, origin_x = 8, origin_y = 13 },
    { x = 0, y = 32, frame_width = 16, frame_height = 4, origin_x = 8, origin_y = 13 },
  },
}
