animation{
  name = "normal",
  src_image = "pictures/photo_11.png",
  directions = {
    { x = 0, y = 0, frame_width = 320, frame_height = 240, origin_x = 0, origin_y = 0 },
    { x = 0, y = 0, frame_width = 320, frame_height = 240, origin_x = 0, origin_y = 0 },
    { x = 0, y = 0, frame_width = 320, frame_height = 240, origin_x = 0, origin_y = 0 },
    { x = 0, y = 0, frame_width = 320, frame_height = 240, origin_x = 0, origin_y = 0 },
  },
}
