animation{
  name = "walking",
  src_image = "entities/decorations/bubble_swamp.png",
  frame_delay = 100,
  directions = {
    { x = 0, y = 0, frame_width = 16, frame_height = 16, origin_x = 8, origin_y = 13, num_frames = 20 },
    { x = 0, y = 0, frame_width = 16, frame_height = 16, origin_x = 8, origin_y = 13, num_frames = 20 },
    { x = 0, y = 0, frame_width = 16, frame_height = 16, origin_x = 8, origin_y = 13, num_frames = 20 },
    { x = 0, y = 0, frame_width = 16, frame_height = 16, origin_x = 8, origin_y = 13, num_frames = 20 },
  },
}
animation{
  name = "stopped",
  src_image = "entities/decorations/bubble_swamp.png",
  frame_delay = 100,
  frame_to_loop_on = 0,
  directions = {
    { x = 224, y = 0, frame_width = 16, frame_height = 16, origin_x = 8, origin_y = 13 },
    { x = 224, y = 0, frame_width = 16, frame_height = 16, origin_x = 8, origin_y = 13 },
    { x = 224, y = 0, frame_width = 16, frame_height = 16, origin_x = 8, origin_y = 13 },
    { x = 224, y = 0, frame_width = 16, frame_height = 16, origin_x = 8, origin_y = 13 },
  },
}
