properties{
  x = 0,
  y = 0,
  width = 320,
  height = 240,
  min_layer = 0,
  max_layer = 2,
  tileset = "dungeon/pink",
  music = "same",
}

tile{
  layer = 0,
  x = 64,
  y = 64,
  width = 192,
  height = 128,
  pattern = "floor.16-2",
}

tile{
  layer = 0,
  x = 64,
  y = 40,
  width = 192,
  height = 24,
  pattern = "wall_low.1-2",
}

tile{
  layer = 0,
  x = 40,
  y = 64,
  width = 24,
  height = 128,
  pattern = "wall_low.3-2",
}

tile{
  layer = 0,
  x = 256,
  y = 64,
  width = 24,
  height = 128,
  pattern = "wall_low.4-2",
}

tile{
  layer = 0,
  x = 40,
  y = 40,
  width = 24,
  height = 24,
  pattern = "wall_low.corner.1-2",
}

tile{
  layer = 0,
  x = 248,
  y = 64,
  width = 8,
  height = 8,
  pattern = "wall_low_border.corner.2-3",
}

tile{
  layer = 0,
  x = 64,
  y = 96,
  width = 8,
  height = 8,
  pattern = "wall_low_border.corner.1-3",
}

tile{
  layer = 0,
  x = 216,
  y = 64,
  width = 32,
  height = 8,
  pattern = "wall_low_border.1-3",
}

tile{
  layer = 0,
  x = 64,
  y = 104,
  width = 8,
  height = 80,
  pattern = "wall_low_border.3-3",
}

tile{
  layer = 0,
  x = 248,
  y = 72,
  width = 8,
  height = 112,
  pattern = "wall_low_border.4-3",
}

tile{
  layer = 0,
  x = 248,
  y = 64,
  width = 8,
  height = 8,
  pattern = "wall_low_border.corner.2-3",
}

tile{
  layer = 0,
  x = 256,
  y = 56,
  width = 24,
  height = 24,
  pattern = "wall_low.corner.2-2",
}

tile{
  layer = 0,
  x = 240,
  y = 40,
  width = 24,
  height = 24,
  pattern = "wall_low.corner.2-2",
}

tile{
  layer = 0,
  x = 240,
  y = 56,
  width = 24,
  height = 24,
  pattern = "wall_low.corner_reverse.2-2",
}

tile{
  layer = 0,
  x = 240,
  y = 80,
  width = 16,
  height = 8,
  pattern = "wall_low_border.1-3",
}

tile{
  layer = 0,
  x = 232,
  y = 64,
  width = 8,
  height = 16,
  pattern = "wall_low_border.4-3",
}

tile{
  layer = 0,
  x = 232,
  y = 80,
  width = 8,
  height = 8,
  pattern = "wall_low_border.corner_reverse.2-3",
}

tile{
  layer = 0,
  x = 232,
  y = 64,
  width = 8,
  height = 8,
  pattern = "wall_low_border.corner.2-3",
}

tile{
  layer = 0,
  x = 248,
  y = 80,
  width = 8,
  height = 8,
  pattern = "wall_low_border.corner.2-3",
}

tile{
  layer = 0,
  x = 184,
  y = 40,
  width = 24,
  height = 24,
  pattern = "wall_low.corner.1-2",
}

tile{
  layer = 0,
  x = 208,
  y = 64,
  width = 8,
  height = 8,
  pattern = "wall_low_border.corner.1-3",
}

tile{
  layer = 0,
  x = 184,
  y = 64,
  width = 24,
  height = 80,
  pattern = "wall_low.3-2",
}

tile{
  layer = 0,
  x = 208,
  y = 72,
  width = 8,
  height = 96,
  pattern = "wall_low_border.3-3",
}

tile{
  layer = 0,
  x = 96,
  y = 96,
  width = 24,
  height = 48,
  pattern = "wall_low.4-2",
}

tile{
  layer = 0,
  x = 88,
  y = 104,
  width = 8,
  height = 64,
  pattern = "wall_low_border.4-3",
}

tile{
  layer = 0,
  x = 64,
  y = 72,
  width = 32,
  height = 24,
  pattern = "wall_low.1-2",
}

tile{
  layer = 0,
  x = 96,
  y = 72,
  width = 24,
  height = 24,
  pattern = "wall_low.corner.2-2",
}

tile{
  layer = 0,
  x = 40,
  y = 72,
  width = 24,
  height = 24,
  pattern = "wall_low.corner.1-2",
}

tile{
  layer = 0,
  x = 88,
  y = 96,
  width = 8,
  height = 8,
  pattern = "wall_low_border.corner.2-3",
}

tile{
  layer = 0,
  x = 72,
  y = 96,
  width = 16,
  height = 8,
  pattern = "wall_low_border.1-3",
}

tile{
  layer = 0,
  x = 72,
  y = 120,
  width = 16,
  height = 16,
  pattern = "94",
  tileset = "addition/dungeon",
}

tile{
  layer = 0,
  x = 216,
  y = 104,
  width = 16,
  height = 16,
  pattern = "94",
  tileset = "addition/dungeon",
}

tile{
  layer = 0,
  x = 232,
  y = 120,
  width = 16,
  height = 16,
  pattern = "94",
  tileset = "addition/dungeon",
}

tile{
  layer = 0,
  x = 64,
  y = 176,
  width = 192,
  height = 24,
  pattern = "wall_low.2-2",
}

tile{
  layer = 0,
  x = 40,
  y = 176,
  width = 24,
  height = 24,
  pattern = "wall_low.corner.3-2",
}

tile{
  layer = 0,
  x = 64,
  y = 168,
  width = 8,
  height = 8,
  pattern = "wall_low_border.corner.3-3",
}

tile{
  layer = 0,
  x = 248,
  y = 168,
  width = 8,
  height = 8,
  pattern = "wall_low_border.corner.4-3",
}

tile{
  layer = 0,
  x = 72,
  y = 168,
  width = 176,
  height = 8,
  pattern = "wall_low_border.2-3",
}

tile{
  layer = 0,
  x = 248,
  y = 168,
  width = 8,
  height = 8,
  pattern = "wall_low_border.corner.4-3",
}

tile{
  layer = 0,
  x = 256,
  y = 160,
  width = 24,
  height = 24,
  pattern = "wall_low.corner.4-2",
}

tile{
  layer = 0,
  x = 240,
  y = 176,
  width = 24,
  height = 24,
  pattern = "wall_low.corner.4-2",
}

tile{
  layer = 0,
  x = 240,
  y = 160,
  width = 24,
  height = 24,
  pattern = "wall_low.corner_reverse.4-2",
}

tile{
  layer = 0,
  x = 240,
  y = 152,
  width = 16,
  height = 8,
  pattern = "wall_low_border.2-3",
}

tile{
  layer = 0,
  x = 232,
  y = 160,
  width = 8,
  height = 16,
  pattern = "wall_low_border.4-3",
}

tile{
  layer = 0,
  x = 232,
  y = 152,
  width = 8,
  height = 8,
  pattern = "wall_low_border.corner_reverse.4-3",
}

tile{
  layer = 0,
  x = 232,
  y = 168,
  width = 8,
  height = 8,
  pattern = "wall_low_border.corner.4-3",
}

tile{
  layer = 0,
  x = 248,
  y = 152,
  width = 8,
  height = 8,
  pattern = "wall_low_border.corner.4-3",
}

tile{
  layer = 0,
  x = 72,
  y = 152,
  width = 160,
  height = 16,
  pattern = "water_shallow",
}

tile{
  layer = 0,
  x = 64,
  y = 144,
  width = 8,
  height = 8,
  pattern = "water_shallow.corner.1",
}

tile{
  layer = 0,
  x = 64,
  y = 168,
  width = 8,
  height = 8,
  pattern = "water_shallow.corner.3",
}

tile{
  layer = 0,
  x = 232,
  y = 144,
  width = 8,
  height = 8,
  pattern = "water_shallow.corner.2",
}

tile{
  layer = 0,
  x = 232,
  y = 168,
  width = 8,
  height = 8,
  pattern = "water_shallow.corner.4",
}

tile{
  layer = 0,
  x = 64,
  y = 152,
  width = 8,
  height = 16,
  pattern = "water_shallow.3",
}

tile{
  layer = 0,
  x = 232,
  y = 152,
  width = 8,
  height = 16,
  pattern = "water_shallow.4",
}

tile{
  layer = 0,
  x = 72,
  y = 168,
  width = 160,
  height = 8,
  pattern = "water_shallow.2",
}

tile{
  layer = 0,
  x = 112,
  y = 120,
  width = 80,
  height = 24,
  pattern = "wall_low.1-2",
}

tile{
  layer = 0,
  x = 184,
  y = 120,
  width = 24,
  height = 24,
  pattern = "wall_low.corner_reverse.1-2",
}

tile{
  layer = 0,
  x = 96,
  y = 120,
  width = 24,
  height = 24,
  pattern = "wall_low.corner_reverse.2-2",
}

tile{
  layer = 0,
  x = 72,
  y = 144,
  width = 160,
  height = 8,
  pattern = "water_shallow.1",
}

tile{
  layer = 0,
  x = 136,
  y = 128,
  width = 8,
  height = 24,
  pattern = "stairs_inner_up.1.border.1-2",
}

tile{
  layer = 0,
  x = 144,
  y = 128,
  width = 16,
  height = 24,
  pattern = "stairs_inner_up.1-2",
}

tile{
  layer = 0,
  x = 160,
  y = 128,
  width = 8,
  height = 24,
  pattern = "stairs_inner_up.1.border.2-2",
}

tile{
  layer = 0,
  x = 144,
  y = 176,
  width = 16,
  height = 16,
  pattern = "door_stairs.straight_up.2",
}

tile{
  layer = 0,
  x = 160,
  y = 176,
  width = 8,
  height = 16,
  pattern = "door.2.low_support.2-2",
}

tile{
  layer = 0,
  x = 136,
  y = 176,
  width = 8,
  height = 16,
  pattern = "door.2.low_support.1-2",
}

tile{
  layer = 0,
  x = 216,
  y = 128,
  width = 16,
  height = 16,
  pattern = "95",
  tileset = "addition/dungeon",
}

tile{
  layer = 0,
  x = 184,
  y = 56,
  width = 8,
  height = 16,
  pattern = "187",
  tileset = "addition/dungeon",
}

destructible{
  name = "auto_destructible_1",
  layer = 0,
  x = 224,
  y = 85,
  sprite = "entities/destructibles/skull_white",
  destruction_sound = "stone",
  weight = 1,
}

destructible{
  name = "auto_destructible_2",
  layer = 0,
  x = 224,
  y = 101,
  sprite = "entities/destructibles/skull_white",
  destruction_sound = "stone",
  weight = 1,
}

destructible{
  name = "auto_destructible_3",
  layer = 0,
  x = 240,
  y = 101,
  sprite = "entities/destructibles/skull_white",
  destruction_sound = "stone",
  weight = 1,
}

stairs{
  layer = 0,
  x = 144,
  y = 128,
  direction = 1,
  subtype = 4,
}

destination{
  name = "stair",
  layer = 0,
  x = 152,
  y = 189,
  direction = 1,
}

teletransporter{
  layer = 0,
  x = 144,
  y = 176,
  properties = {
    {
      key = "effect",
      value = "radial_fade_out",
    },
  },
  width = 16,
  height = 16,
  destination_map = "out/b1_egg_of_the_dream_fish",
  destination = "stair_arrows_upgrade",
}

stairs{
  layer = 0,
  x = 144,
  y = 176,
  direction = 3,
  subtype = 2,
}

tile{
  layer = 1,
  x = 120,
  y = 72,
  width = 64,
  height = 48,
  pattern = "floor.16-1",
}

tile{
  layer = 1,
  x = 40,
  y = 40,
  width = 144,
  height = 32,
  pattern = "floor.16-1",
}

tile{
  layer = 1,
  x = 288,
  y = 32,
  width = 16,
  height = 192,
  pattern = "ceiling.2",
}

tile{
  layer = 1,
  x = 16,
  y = 32,
  width = 16,
  height = 192,
  pattern = "ceiling.2",
}

tile{
  layer = 1,
  x = 16,
  y = 16,
  width = 288,
  height = 16,
  pattern = "ceiling.2",
}

tile{
  layer = 1,
  x = 40,
  y = 16,
  width = 240,
  height = 24,
  pattern = "wall.1-3",
}

tile{
  layer = 1,
  x = 16,
  y = 40,
  width = 24,
  height = 176,
  pattern = "wall.3-3",
}

tile{
  layer = 1,
  x = 280,
  y = 40,
  width = 24,
  height = 176,
  pattern = "wall.4-3",
}

tile{
  layer = 1,
  x = 280,
  y = 32,
  width = 24,
  height = 24,
  pattern = "wall.corner.2-3",
}

tile{
  layer = 1,
  x = 264,
  y = 16,
  width = 24,
  height = 24,
  pattern = "wall.corner.2-3",
}

tile{
  layer = 1,
  x = 264,
  y = 32,
  width = 24,
  height = 24,
  pattern = "wall.corner_reverse.2-3",
}

tile{
  layer = 1,
  x = 32,
  y = 16,
  width = 24,
  height = 24,
  pattern = "wall.corner.1-3",
}

tile{
  layer = 1,
  x = 16,
  y = 32,
  width = 24,
  height = 24,
  pattern = "wall.corner.1-3",
}

tile{
  layer = 1,
  x = 32,
  y = 32,
  width = 24,
  height = 24,
  pattern = "wall.corner_reverse.1-3",
}

tile{
  layer = 1,
  x = 40,
  y = 56,
  width = 8,
  height = 16,
  pattern = "wall_border.3-3",
}

tile{
  layer = 1,
  x = 56,
  y = 40,
  width = 128,
  height = 8,
  pattern = "wall_border.1-3",
}

tile{
  layer = 1,
  x = 40,
  y = 56,
  width = 16,
  height = 8,
  pattern = "wall_border.1-3",
}

tile{
  layer = 1,
  x = 56,
  y = 40,
  width = 8,
  height = 16,
  pattern = "wall_border.3-3",
}

tile{
  layer = 1,
  x = 56,
  y = 56,
  width = 8,
  height = 8,
  pattern = "wall_border.corner_reverse.1-3",
}

tile{
  layer = 1,
  x = 40,
  y = 56,
  width = 8,
  height = 8,
  pattern = "wall_border.corner.1-3",
}

tile{
  layer = 1,
  x = 56,
  y = 40,
  width = 8,
  height = 8,
  pattern = "wall_border.corner.1-3",
}

tile{
  layer = 1,
  x = 128,
  y = 48,
  width = 8,
  height = 72,
  pattern = "floor_border.1",
}

tile{
  layer = 1,
  x = 168,
  y = 48,
  width = 8,
  height = 72,
  pattern = "floor_border.1",
}

tile{
  layer = 1,
  x = 136,
  y = 80,
  width = 32,
  height = 40,
  pattern = "floor_small.2",
}

tile{
  layer = 1,
  x = 88,
  y = 24,
  width = 32,
  height = 16,
  pattern = "wall_torch.1",
}

tile{
  layer = 1,
  x = 184,
  y = 24,
  width = 32,
  height = 16,
  pattern = "wall_torch.1",
}

tile{
  layer = 1,
  x = 88,
  y = 48,
  width = 16,
  height = 16,
  pattern = "95",
  tileset = "addition/dungeon",
}

tile{
  layer = 1,
  x = 72,
  y = 48,
  width = 16,
  height = 16,
  pattern = "94",
  tileset = "addition/dungeon",
}

tile{
  layer = 1,
  x = 136,
  y = 40,
  width = 32,
  height = 32,
  pattern = "88",
  tileset = "addition/dungeon",
}

tile{
  layer = 1,
  x = 136,
  y = 72,
  width = 32,
  height = 16,
  pattern = "106",
  tileset = "addition/dungeon",
}

tile{
  layer = 1,
  x = 120,
  y = 72,
  width = 16,
  height = 16,
  pattern = "89",
  tileset = "addition/dungeon",
}

tile{
  layer = 1,
  x = 168,
  y = 72,
  width = 16,
  height = 16,
  pattern = "89",
  tileset = "addition/dungeon",
}

tile{
  layer = 1,
  x = 136,
  y = 88,
  width = 32,
  height = 16,
  pattern = "103",
  tileset = "addition/dungeon",
}

tile{
  layer = 1,
  x = 16,
  y = 208,
  width = 288,
  height = 16,
  pattern = "ceiling.2",
}

tile{
  layer = 1,
  x = 40,
  y = 200,
  width = 240,
  height = 24,
  pattern = "wall.2-3",
}

tile{
  layer = 1,
  x = 264,
  y = 200,
  width = 24,
  height = 24,
  pattern = "wall.corner.4-3",
}

tile{
  layer = 1,
  x = 280,
  y = 184,
  width = 24,
  height = 24,
  pattern = "wall.corner.4-3",
}

tile{
  layer = 1,
  x = 264,
  y = 184,
  width = 24,
  height = 24,
  pattern = "wall.corner_reverse.4-3",
}

tile{
  layer = 1,
  x = 16,
  y = 200,
  width = 24,
  height = 24,
  pattern = "wall.corner.3-3",
}

tile{
  layer = 1,
  x = 136,
  y = 120,
  width = 8,
  height = 8,
  pattern = "stairs_inner_up.1.top.border.1-2",
}

tile{
  layer = 1,
  x = 144,
  y = 120,
  width = 16,
  height = 8,
  pattern = "stairs_inner_up.1.top-2",
}

tile{
  layer = 1,
  x = 160,
  y = 120,
  width = 8,
  height = 8,
  pattern = "stairs_inner_up.1.top.border.2-2",
}

tile{
  layer = 1,
  x = 88,
  y = 200,
  width = 32,
  height = 16,
  pattern = "wall_torch.2",
}

tile{
  layer = 1,
  x = 184,
  y = 200,
  width = 32,
  height = 16,
  pattern = "wall_torch.2",
}

tile{
  layer = 1,
  x = 120,
  y = 192,
  width = 64,
  height = 8,
  pattern = "door_cache_low.2-2",
}

tile{
  layer = 1,
  x = 136,
  y = 192,
  width = 32,
  height = 8,
  pattern = "door_top.low.2-3",
}

tile{
  layer = 1,
  x = 144,
  y = 192,
  width = 16,
  height = 8,
  pattern = "door_top.stairs_up.2-1",
}

jumper{
  layer = 1,
  x = 184,
  y = 88,
  width = 8,
  height = 32,
  direction = 0,
  jump_length = 40,
}

jumper{
  layer = 1,
  x = 112,
  y = 88,
  width = 8,
  height = 32,
  direction = 4,
  jump_length = 40,
}

custom_entity{
  name = "mad_bat",
  layer = 1,
  x = 152,
  y = 93,
  width = 16,
  height = 16,
  direction = 0,
}

jumper{
  layer = 1,
  x = 112,
  y = 120,
  width = 24,
  height = 8,
  direction = 6,
  jump_length = 40,
}

jumper{
  layer = 1,
  x = 168,
  y = 120,
  width = 24,
  height = 8,
  direction = 6,
  jump_length = 40,
}

tile{
  layer = 2,
  x = 0,
  y = 0,
  width = 320,
  height = 16,
  pattern = "ceiling.2",
}

tile{
  layer = 2,
  x = 0,
  y = 16,
  width = 16,
  height = 224,
  pattern = "ceiling.2",
}

tile{
  layer = 2,
  x = 304,
  y = 16,
  width = 16,
  height = 224,
  pattern = "ceiling.2",
}

tile{
  layer = 2,
  x = 288,
  y = 16,
  width = 16,
  height = 16,
  pattern = "ceiling.2",
}

tile{
  layer = 2,
  x = 16,
  y = 16,
  width = 16,
  height = 16,
  pattern = "ceiling.2",
}

tile{
  layer = 2,
  x = 144,
  y = 64,
  width = 16,
  height = 8,
  pattern = "107",
  tileset = "addition/dungeon",
}

tile{
  layer = 2,
  x = 120,
  y = 56,
  width = 16,
  height = 16,
  pattern = "99",
  tileset = "addition/dungeon",
}

tile{
  layer = 2,
  x = 120,
  y = 48,
  width = 16,
  height = 8,
  pattern = "102",
  tileset = "addition/dungeon",
}

tile{
  layer = 2,
  x = 112,
  y = 64,
  width = 8,
  height = 24,
  pattern = "100",
  tileset = "addition/dungeon",
}

tile{
  layer = 2,
  x = 168,
  y = 56,
  width = 16,
  height = 16,
  pattern = "99",
  tileset = "addition/dungeon",
}

tile{
  layer = 2,
  x = 168,
  y = 48,
  width = 16,
  height = 8,
  pattern = "102",
  tileset = "addition/dungeon",
}

tile{
  layer = 2,
  x = 160,
  y = 64,
  width = 8,
  height = 24,
  pattern = "100",
  tileset = "addition/dungeon",
}

tile{
  layer = 2,
  x = 0,
  y = 224,
  width = 320,
  height = 16,
  pattern = "ceiling.2",
}

tile{
  layer = 2,
  x = 288,
  y = 208,
  width = 16,
  height = 16,
  pattern = "ceiling.2",
}

tile{
  layer = 2,
  x = 112,
  y = 48,
  width = 8,
  height = 24,
  pattern = "100",
  tileset = "addition/dungeon",
}

